﻿<?xml version="1.0" encoding="utf-8"?>
<svg version="1.1" xmlns:xlink="http://www.w3.org/1999/xlink" width="12px" height="12px" viewBox="0 26  12 12" xmlns="http://www.w3.org/2000/svg">
  <path d="M 6 26  C 9.36 26  12 28.64  12 32  C 12 35.36  9.36 38  6 38  C 2.64 38  0 35.36  0 32  C 0 28.64  2.64 26  6 26  Z " fill-rule="nonzero" fill="#ffffff" stroke="none" />
  <path d="M 6 26.5  C 9.08 26.5  11.5 28.92  11.5 32  C 11.5 35.08  9.08 37.5  6 37.5  C 2.92 37.5  0.5 35.08  0.5 32  C 0.5 28.92  2.92 26.5  6 26.5  Z " stroke-width="1" stroke="#797979" fill="none" />
  <path d="M 6 35  C 4.32 35  3 33.68  3 32  C 3 30.32  4.32 29  6 29  C 7.68 29  9 30.32  9 32  C 9 33.68  7.68 35  6 35  " fill-rule="nonzero" fill="#797979" stroke="none" />
</svg>