﻿<?xml version="1.0" encoding="utf-8"?>
<svg version="1.1" xmlns:xlink="http://www.w3.org/1999/xlink" width="12px" height="12px" viewBox="33 26  12 12" xmlns="http://www.w3.org/2000/svg">
  <path d="M 39 26  C 42.36 26  45 28.64  45 32  C 45 35.36  42.36 38  39 38  C 35.64 38  33 35.36  33 32  C 33 28.64  35.64 26  39 26  Z " fill-rule="nonzero" fill="#f0f0f0" stroke="none" />
  <path d="M 39 26.5  C 42.08 26.5  44.5 28.92  44.5 32  C 44.5 35.08  42.08 37.5  39 37.5  C 35.92 37.5  33.5 35.08  33.5 32  C 33.5 28.92  35.92 26.5  39 26.5  Z " stroke-width="1" stroke="#797979" fill="none" />
</svg>