﻿<?xml version="1.0" encoding="utf-8"?>
<svg version="1.1" xmlns:xlink="http://www.w3.org/1999/xlink" width="12px" height="12px" viewBox="66 26  12 12" xmlns="http://www.w3.org/2000/svg">
  <path d="M 72 26  C 75.36 26  78 28.64  78 32  C 78 35.36  75.36 38  72 38  C 68.64 38  66 35.36  66 32  C 66 28.64  68.64 26  72 26  Z " fill-rule="nonzero" fill="#f0f0f0" stroke="none" />
  <path d="M 72 26.5  C 75.08 26.5  77.5 28.92  77.5 32  C 77.5 35.08  75.08 37.5  72 37.5  C 68.92 37.5  66.5 35.08  66.5 32  C 66.5 28.92  68.92 26.5  72 26.5  Z " stroke-width="1" stroke="#797979" fill="none" />
</svg>