﻿<?xml version="1.0" encoding="utf-8"?>
<svg version="1.1" xmlns:xlink="http://www.w3.org/1999/xlink" width="12px" height="12px" viewBox="99 26  12 12" xmlns="http://www.w3.org/2000/svg">
  <path d="M 105 26  C 108.36 26  111 28.64  111 32  C 111 35.36  108.36 38  105 38  C 101.64 38  99 35.36  99 32  C 99 28.64  101.64 26  105 26  Z " fill-rule="nonzero" fill="#ffffff" stroke="none" />
  <path d="M 105 26.5  C 108.08 26.5  110.5 28.92  110.5 32  C 110.5 35.08  108.08 37.5  105 37.5  C 101.92 37.5  99.5 35.08  99.5 32  C 99.5 28.92  101.92 26.5  105 26.5  Z " stroke-width="1" stroke="#797979" fill="none" />
</svg>