﻿<?xml version="1.0" encoding="utf-8"?>
<svg version="1.1" xmlns:xlink="http://www.w3.org/1999/xlink" width="12px" height="12px" viewBox="132 26  12 12" xmlns="http://www.w3.org/2000/svg">
  <path d="M 138 26  C 141.36 26  144 28.64  144 32  C 144 35.36  141.36 38  138 38  C 134.64 38  132 35.36  132 32  C 132 28.64  134.64 26  138 26  Z " fill-rule="nonzero" fill="#f0f0f0" stroke="none" />
  <path d="M 138 26.5  C 141.08 26.5  143.5 28.92  143.5 32  C 143.5 35.08  141.08 37.5  138 37.5  C 134.92 37.5  132.5 35.08  132.5 32  C 132.5 28.92  134.92 26.5  138 26.5  Z " stroke-width="1" stroke="#797979" fill="none" />
</svg>